{
    "defaultSeverity": "error",
    "extends": [
        "tslint:recommended"
    ],
    "jsRules": {},
    "rules": {
        "no-console": false,
        "arrow-parens": false,
        "trailing-comma": false,
        "disable-next-line:no-empty": false,
        "prefer-for-of": false,
        "disable-next-line": false,
        "no-trailing-whitespace": false,
        "radix": false,
        "no-empty": false,
        "max-line-length": false,
        "typedef-whitespace": false,
        "variable-name": false,
        "object-literal-sort-keys": false,
        "ordered-imports": false
    },
    "rulesDirectory": []
}
